﻿[
  {
    "outputFile": "app/App.js",
    "inputFile": "app/App.es6"
  },
  {
    "outputFile": "app/component/GreeterSingleton.js",
    "inputFile": "app/component/GreeterSingleton.es6"
  },
  {
    "outputFile": "app/component/MessagePrinter.js",
    "inputFile": "app/component/MessagePrinter.es6"
  },
  {
    "outputFile": "app/component/MessagePrinterNice.js",
    "inputFile": "app/component/MessagePrinterNice.es6"
  },
  {
    "outputFile": "app/service/GreeterService.js",
    "inputFile": "app/service/GreeterService.es6"
  },
  {
    "outputFile": "app/service/PostService.js",
    "inputFile": "app/service/PostService.es6"
  }
  
]